{
    "en":{
        "data":{
            "LOADING":{
                "text":"LOADING...",
                "style":{
                    "fontFamily": "Exo Bold", "fontSize": 16, "color": "#FFFFFF","align": "left"
                }
            },
            "TAP_ANYWHERE":{
                "text":"TAP ANYWHERE TO CONTINUE",
                "style":{
                    "fontFamily": "Exo Bold", "fontSize": 20, "color": "#FFFFFF","align": "center"
                }
            },
            "PLAY":{
                "text":"PLAY",
                "style":{
                    "fontFamily": "Exo Bold", "fontSize": 32, "color": "#FFFFFF","align": "center"
                }
            },
            "PRACTICE":{
                "text":"PRACTICE",
                "style":{
                    "fontFamily": "Exo Bold", "fontSize": 32, "color": "#FFFFFF","align": "center"
                }
            },
            "SCORE":{
                "text":"SCORE",
                "style":{
                    "fontFamily": "Proximanova Black", "fontSize": 18, "color": "#FFFFFF", "align": "center"
                }
            },
            "ROUND":{
                "text":"ROUND",
                "style":{
                    "fontFamily": "Proximanova Black", "fontSize": 18, "color": "#FFFFFF", "align": "center"
                }
            },
            "LIVES":{
                "text":"LIVES",
                "style":{
                    "fontFamily": "Proximanova Black", "fontSize": 18, "color": "#FFFFFF", "align": "center"
                }
            },
            "TIME":{
                "text":"TIME",
                "style":{
                    "fontFamily": "Proximanova Black", "fontSize": 18, "color": "#FFFFFF", "align": "center"
                }
            },
            "NEXT":{
                "text":"NEXT",
                "style":{
                    "fontFamily": "Proximanova Regular", "fontSize": 22, "color": "#FFFFFF", "align": "center"
                }
            },
            "GAME_PAUSED":{
                "text":"GAME PAUSED",
                "style":{
                    "fontFamily": "Exo Bold", "fontSize": 50, "color": "#FFFFFF" 
                }
            },
            "HOW_TO_PLAY":{
                "text":"HOW TO PLAY",
                "style":{
                    "fontFamily": "Exo Bold", "fontSize": 50, "color": "#FFFFFF" 
                }
            },
            "HTP_INSTRUCTIONS_0":{
                "text":"Answer as many questions as you can.",
                "style":{
                    "fontFamily": "Proximanova Regular", "fontSize": 22, "color": "#FFFFFF","align": "center","wordWrap": { "width": 400, "useAdvancedWrap": true }
                }
            },
            "HTP_INSTRUCTIONS_1":{
                "text":"Choose carefully! More than one of displayed letter may not be a part of the word.",
                "style":{
                    "fontFamily": "Proximanova Regular", "fontSize": 22, "color": "#FFFFFF","align": "center","wordWrap": { "width": 450, "useAdvancedWrap": true }
                }
            },
            "HTP_INSTRUCTIONS_2":{
                "text":"Earn points based on how quickly you answer the question.",
                "style":{
                    "fontFamily": "Proximanova Regular", "fontSize": 22, "color": "#FFFFFF","align": "center","wordWrap": { "width": 400, "useAdvancedWrap": true }
                }
            },
            "HTP_INSTRUCTIONS_3":{
                "text":"Choosing the wrong letter or running out of time will cost a life.",
                "style":{
                    "fontFamily": "Proximanova Regular", "fontSize": 22, "color": "#FFFFFF","align": "center","wordWrap": { "width": 400, "useAdvancedWrap": true }
                }
            },
            "HTP_INSTRUCTIONS_4":{
                "text":"If you lose all your lives or run out of time, the game will end.",
                "style":{
                    "fontFamily": "Proximanova Regular", "fontSize": 22, "color": "#FFFFFF","align": "center","wordWrap": { "width": 400, "useAdvancedWrap": true }
                }
            },
            "HTP_INSTRUCTIONS_5":{
                "text":"The quicker you solve the puzzle, the more points you earn.",
                "style":{
                    "fontFamily": "Proximanova Regular", "fontSize": 22, "color": "#FFFFFF","align": "center","wordWrap": { "width": 400, "useAdvancedWrap": true }
                }
            },
            "HTP_INSTRUCTIONS_TOUCH_0":{
                "text":"Answer as many questions as you can.",
                "style":{
                    "fontFamily": "Proximanova Regular", "fontSize": 22, "color": "#FFFFFF","align": "center","wordWrap": { "width": 400, "useAdvancedWrap": true }
                }
            },
            "HTP_INSTRUCTIONS_TOUCH_1":{
                "text":"Choose carefully! More than one of displayed letter may not be a part of the word.",
                "style":{
                    "fontFamily": "Proximanova Regular", "fontSize": 22, "color": "#FFFFFF","align": "center","wordWrap": { "width": 450, "useAdvancedWrap": true }
                }
            },
            "HTP_INSTRUCTIONS_TOUCH_2":{
                "text":"Earn points based on how quickly you answer the question.",
                "style":{
                    "fontFamily": "Proximanova Regular", "fontSize": 22, "color": "#FFFFFF","align": "center","wordWrap": { "width": 400, "useAdvancedWrap": true }
                }
            },
            "HTP_INSTRUCTIONS_TOUCH_3":{
                "text":"Choosing the wrong letter or running out of time will cost a life.",
                "style":{
                    "fontFamily": "Proximanova Regular", "fontSize": 22, "color": "#FFFFFF","align": "center","wordWrap": { "width": 400, "useAdvancedWrap": true }
                }
            },
            "HTP_INSTRUCTIONS_TOUCH_4":{
                "text":"If you lose all your lives or run out of time, the game will end.",
                "style":{
                    "fontFamily": "Proximanova Regular", "fontSize": 22, "color": "#FFFFFF","align": "center","wordWrap": { "width": 400, "useAdvancedWrap": true }
                }
            },
            "HTP_INSTRUCTIONS_TOUCH_5":{
                "text":"The quicker you solve the puzzle, the more points you earn.",
                "style":{
                    "fontFamily": "Proximanova Regular", "fontSize": 22, "color": "#FFFFFF","align": "center","wordWrap": { "width": 400, "useAdvancedWrap": true }
                }
            },
            "ARE_YOU_SURE":{
                "text":"ARE YOU SURE?",
                "style":{
                    "fontFamily": "Exo Bold", "fontSize": 41, "color": "#FFFFFF"
                }
            },
            "VIDEO":{
                "text":"VIDEO",
                "style":{
                    "fontFamily": "Proximanova Regular", "fontSize": 14, "color": "#FFFFFF", "align": "center"
                }
            }
        }
    }
    
}