{
    "data":{
        "STR_LOADING": { 
            "TEXT": "LOADING", 
            "STYLE": {
                "fontFamily": "exo-bold",
                "align": "center",
                "fill": "#FFFFFF",
                "fontSize": 16
            }
        },
        "STR_TAP_CONT": { 
            "TEXT": "TAP ANYWHERE TO CONTINUE", 
            "STYLE": {
                "fontFamily": "exo-bold",
                "align": "left",
                "fill": "#FFFFFF",
                "fontSize": 22
            }
        },
        "BTN_PLAY": { 
            "TEXT": "PLAY", 
            "STYLE": {
                "fontFamily": "exo-bold",
                "align": "left",
                "fill": "#FFFFFF",
                "fontSize": 32
            }
        },
        "BTN_PRAC": { 
            "TEXT": "PRACTICE", 
            "STYLE": {
                "fontFamily": "exo-bold",
                "align": "left",
                "fill": "#FFFFFF",
                "fontSize": 32
            }
        },
        "STR_CONFIRM": { 
            "TEXT": "ARE YOU SURE?", 
            "STYLE": {
                "fontFamily": "exo-bold",
                "align": "left",
                "fill": "#FFFFFF",
                "fontSize": 40
            }
        },
        "STR_PAUSED": { 
            "TEXT": "GAME PAUSED", 
            "STYLE": {
                "fontFamily": "exo-bold",
                "align": "left",
                "fill": "#FFFFFF",
                "fontSize": 50
            }
        },
        "STR_HTP": { 
            "TEXT": "HOW TO PLAY", 
            "STYLE": {
                "fontFamily": "exo-bold",
                "align": "left",
                "fill": "#FFFFFF",
                "fontSize": 50
            }
        },
        "STR_WOSE_HTP_M_0": { 
            "TEXT": "Slide your fingers over the letters to make a selection. Select all the words before the time runs out!", 
            "STYLE": {
                "fontFamily": "proximanova-reg",
                "align": "center",
                "fill": "#FFFFFF",
                "fontSize": 24
            }
        },
        "STR_WOSE_HTP_D_0": { 
            "TEXT": "Slide the mouse over the letters to make a selection. Select all the words before the time runs out!", 
            "STYLE": {
                "fontFamily": "proximanova-reg",
                "align": "center",
                "fill": "#FFFFFF",
                "fontSize": 24
            }
        },
        "STR_VESC_HTP_M_0": { 
            "TEXT": "Tap and drag each word at the bottom to the correct position within the Bible verse, then drop it in place before time runs out.", 
            "STYLE": {
                "fontFamily": "proximanova-reg",
                "align": "center",
                "fill": "#FFFFFF",
                "fontSize": 24
            }
        },
        "STR_VESC_HTP_D_0": { 
            "TEXT": "Click and drag each word at the bottom to the correct position within the Bible verse, then drop it in place before time runs out.", 
            "STYLE": {
                "fontFamily": "proximanova-reg",
                "align": "center",
                "fill": "#FFFFFF",
                "fontSize": 24
            }
        },
        "STR_TRIV_HTP_0": { 
            "TEXT": "Answer as many questions as you can before the time runs out.", 
            "STYLE": {
                "fontFamily": "proximanova-reg",
                "align": "center",
                "fill": "#FFFFFF",
                "fontSize": 24
            }
        },
        "STR_GAMEOVER": { 
            "TEXT": "GAME OVER", 
            "STYLE": {
                "fontFamily": "exo-bold",
                "align": "left",
                "fill": "#FFFFFF",
                "fontSize": 50
            }
        },
        "STR_SCORE": { 
            "TEXT": "SCORE: ", 
            "STYLE": {
                "fontFamily": "proximanova-black",
                "align": "left",
                "fill": "#FFFFFF",
                "fontSize": 50
            }
        },
        "STR_BESTSCORE": { 
            "TEXT": "BEST: ", 
            "STYLE": {
                "fontFamily": "proximanova-black",
                "align": "left",
                "fill": "#FFFFFF",
                "fontSize": 32
            }
        },
        "STR_CONT_BEST": { 
            "TEXT": "BEST", 
            "STYLE": {
                "fontFamily": "proximanova-reg",
                "align": "left",
                "fill": "#FFFFFF",
                "fontSize": 20
            }
        },
        "STR_CONT_BESTSCORE": { 
            "TEXT": "", 
            "STYLE": {
                "fontFamily": "proximanova-reg",
                "align": "left",
                "fill": "#FFFFFF",
                "fontSize": 36
            }
        },
        "STR_CONT_SCORETITLE": { 
            "TEXT": "SCORE", 
            "STYLE": {
                "fontFamily": "proximanova-black",
                "align": "left",
                "fill": "#FFFFFF",
                "fontSize": 20
            }
        },
        "STR_CONT_LEVELTITLE": { 
            "TEXT": "LEVEL", 
            "STYLE": {
                "fontFamily": "proximanova-black",
                "align": "left",
                "fill": "#FFFFFF",
                "fontSize": 20
            }
        },
        "STR_CONT_SCOREVALUE": { 
            "TEXT": "0", 
            "STYLE": {
                "fontFamily": "proximanova-reg",
                "align": "left",
                "fill": "#FFFFFF",
                "fontSize": 36
            }
        },
        "STR_CONT_TIMERTITLE": { 
            "TEXT": "TIMER", 
            "STYLE": {
                "fontFamily": "proximanova-black",
                "align": "left",
                "fill": "#FFFFFF",
                "fontSize": 20
            }
        },
        "STR_CONT_TIMERVALUE": { 
            "TEXT": "2:00", 
            "STYLE": {
                "fontFamily": "proximanova-reg",
                "align": "left",
                "fill": "#FFFFFF",
                "fontSize": 36
            }
        },
        "STR_CONT_SCOREEFFECT": { 
            "TEXT": "0", 
            "STYLE": {
                "fontFamily": "proximanova-black",
                "align": "left",
                "fill": "#FFFFFF",
                "fontSize": 50
            }
        },
        "STR_LEVELCOMPLETE": { 
            "TEXT": "LEVEL COMPLETE", 
            "STYLE": {
                "fontFamily": "proximanova-reg",
                "align": "center",
                "fill": "#FFFFFF",
                "fontSize": 40
            }
        },
        "STR_HELLO": { 
            "TEXT": "HELLO!", 
            "STYLE": {
                "fontFamily": "exo-bold",
                "align": "center",
                "fill": "#FFFFFF",
                "fontSize": 64
            }
        },
        "STR_INTRO_DESC": { 
            "TEXT": "INTRO", 
            "STYLE": {
                "fontFamily": "proximanova-reg",
                "align": "center",
                "fill": "#FFFFFF",
                "fontSize": 22
            }
        },
        "STR_INTRO_TODAY": { 
            "TEXT": "Today's Bible Verse", 
            "STYLE": {
                "fontFamily": "exo-bold",
                "align": "center",
                "fill": "#FFFFFF",
                "fontSize": 28
            }
        },
        "STR_INTRO_VERSE_REFERENCE": { 
            "TEXT": "Today's Bible Verse", 
            "STYLE": {
                "fontFamily": "proximanova-reg",
                "align": "center",
                "fill": "#FFFFFF",
                "fontSize": 22
            }
        },
        "STR_INTRO_VERSE": { 
            "TEXT": "Today's Bible Verse", 
            "STYLE": {
                "fontFamily": "proximanova-reg",
                "align": "center",
                "fill": "#FFFFFF",
                "fontSize": 22
            }
        },
        "STR_MID_LEVEL_COMPLETE": { 
            "TEXT": "Level Complete!", 
            "STYLE": {
                "fontFamily": "exo-bold",
                "align": "center",
                "fill": "#FFFFFF",
                "fontSize": 64
            }
        },
        "STR_MID_YOU_WON": { 
            "TEXT": "You won:", 
            "STYLE": {
                "fontFamily": "proximanova-reg",
                "align": "center",
                "fill": "#FFFFFF",
                "fontSize": 24
            }
        },
        "STR_MID_SCORE": { 
            "TEXT": "20", 
            "STYLE": {
                "fontFamily": "exo-bold",
                "align": "center",
                "fill": "#FFFFFF",
                "fontSize": 48
            }
        },
        "STR_MID_SUPERPOINTS": { 
            "TEXT": "Superpoints", 
            "STYLE": {
                "fontFamily": "exo-bold",
                "fill": "#FFFFFF",
                "fontSize": 32
            }
        },
        "STR_MID_VERSE": { 
            "TEXT": "Today's Bible Verse", 
            "STYLE": {
                "fontFamily": "proximanova-reg",
                "align": "center",
                "fill": "#FFFFFF",
                "fontSize": 24
            }
        },
        "STR_MID_VERSE_REFERENCE": { 
            "TEXT": "Today's Bible Verse", 
            "STYLE": {
                "fontFamily": "exo-bold",
                "align": "center",
                "fill": "#FFFFFF",
                "fontSize": 22,
                "fontWeight" : "bold"
            }
        },
        "BTN_MID_NEXT_GAME": { 
            "TEXT": "NEXT GAME", 
            "STYLE": {
                "fontFamily": "exo-bold",
                "align": "left",
                "fill": "#FFFFFF",
                "fontSize": 32
            }
        }
    }
}