{
	"data": {
		"format": {
			"TEXT": "VALUE",
			"STYLE": {
				"style": "style format from https://pixijs.github.io/docs/PIXI.TextStyle.html"
			}
		},
		"DEFAULT_FORMAT": {
			"TEXT": "",
			"STYLE": {
				"fontFamily": "proximanova-black",
				"align": "center",
				"fill": "#FFFFFF",
				"dropShadow": true,
				"fontSize": 35
			}
		},
		"LBL_LOADING": {
			"TEXT": "LOADING",
			"STYLE": {
			}
		},
		"LBL_SCORE_HEADER": {
			"TEXT": "SCORE: ",
			"STYLE": {
				"fontFamily": "proximanova-black",
				"fill": "#FFFFFF",
				"fontSize": 17
			}
		},
		"LBL_TIMER_HEADER": {
			"TEXT": "TIMER: ",
			"STYLE": {
				"fontFamily": "proximanova-black",
				"fill": "#FFFFFF",
				"fontSize": 20
			}
		},
		"LBL_CONFIRM_HEADER": {
			"TEXT": "ARE YOU SURE? ",
			"STYLE": {
				"fontFamily": "Exo-Bold",
				"fill": "#FFFFFF",
				"fontSize": 40
			}
		},
		"LBL_HSCORE_HEADER": {
			"TEXT": "BEST: ",
			"STYLE": {
				"fontFamily": "proximanova-black",
				"fill": "#FFFFFF",
				"fontSize": 20
			}
		},
		"LBL_POSTSCORE_HEADER": {
			"TEXT": "SCORE: ",
			"STYLE": {
				"fontFamily": "proximanova-black",
				"fill": "#FFFFFF",
				"fontSize": 50
			}
		},
		"LBL_POSTBEST_HEADER": {
			"TEXT": "BEST: ",
			"STYLE": {
				"fontFamily": "proximanova-black",
				"fill": "#FFFFFF",
				"fontSize": 32
			}
		},
		"SCORE_FORMAT": {
			"TEXT": "0",
			"STYLE": {
				"fontFamily": "proximanova-black",
				"fill": "#FFFFFF",
				"fontSize": 36
			}
		},
		"HTP_FORMAT": {
			"TEXT": "",
			"STYLE": {
				"fontFamily": "proximanova-black",
				"fontWeight": "bold",
				"fill": "#FFFFFF",
				"fontSize": 28,
				"wordWrap": true,
				"wordWrapWidth": 520,
				"align": "center"
			}
		},
		"AIR_FORMAT": {
			"TEXT": "100",
			"STYLE": {
				"fontFamily": "proximanova-black",
				"fill": "#FFFFFF",
				"fontSize": 36
			}
		},
		"BTN_PLAY": {
			"TEXT": "PLAY",
			"STYLE": {
				"fontFamily": "proximanova-black",
				"fill": "#FFFFFF",
				"fontSize": 32
			}
		},
		"LBL_HTP_HEADER": {
			"TEXT": "HOW TO PLAY",
			"STYLE": {
				"fontFamily": "Exo-Bold",
				"fill": "#FFFFFF",
				"fontSize": 50
			}
		},
		"LBL_AIR_HEADER": {
			"TEXT": "AIR: ",
			"STYLE": {
				"fontFamily": "proximanova-black",
				"fill": "#FFFFFF",
				"fontSize": 17
			}
		},
		"LBL_GAMEOVER_HEADER": {
			"TEXT": "GAME OVER",
			"STYLE": {
				"fontFamily": "Exo-Bold",
				"fill": "#FFFFFF",
				"fontSize": 50
			}
		},
		"LBL_PAUSE_HEADER": {
			"TEXT": "GAME PAUSED",
			"STYLE": {
				"fontFamily": "Exo-Bold",
				"fill": "#FFFFFF",
				"fontSize": 50
			}
		},
        "LBL_ACTION_MOBILE": {
            "TEXT": "tapping",
            "STYLE": {}
        },
        "LBL_ACTION_DESKTOP": {
            "TEXT": "clicking",
            "STYLE": {}
        },
		"LBL_HTP": {
			"TEXT": "Click/Tap to make the great fish dive. Avoid getting hit.",
			"STYLE": {
			}
		},
		"NONE": "NONE"
	}
}
