{
    "en":{
        "data":{
            "LOADING":{
                "text":"LOADING...",
                "style":{
                    "fontFamily": "Exo Bold", "fontSize": 32, "color": "#FFFFFF","align": "left"
                }
            },
            "TAP_ANYWHERE":{
                "text":"TAP ANYWHERE TO CONTINUE",
                "style":{
                    "fontFamily": "Exo Bold", "fontSize": 40, "color": "#FFFFFF","align": "center"
                }
            },
            "PLAY":{
                "text":"PLAY",
                "style":{
                    "fontFamily": "Exo Bold", "fontSize": 64, "color": "#FFFFFF","align": "center"
                }
            },
            "PRACTICE":{
                "text":"PRACTICE",
                "style":{
                    "fontFamily": "Exo Bold", "fontSize": 64, "color": "#FFFFFF","align": "center"
                }
            },
            "SCORE":{
                "text":"SCORE",
                "style":{
                    "fontFamily": "Proximanova Black", "fontSize": 36, "color": "#FFFFFF", "align": "center"
                }
            },
            "ROUND":{
                "text":"ROUND",
                "style":{
                    "fontFamily": "Proximanova Black", "fontSize": 36, "color": "#FFFFFF", "align": "center"
                }
            },
            "LIVES":{
                "text":"LIVES",
                "style":{
                    "fontFamily": "Proximanova Black", "fontSize": 36, "color": "#FFFFFF", "align": "center"
                }
            },
            "TIME":{
                "text":"TIME",
                "style":{
                    "fontFamily": "Proximanova Black", "fontSize": 36, "color": "#FFFFFF", "align": "center"
                }
            },
            "GAME_PAUSED":{
                "text":"GAME PAUSED",
                "style":{
                    "fontFamily": "Exo Bold", "fontSize": 100, "color": "#FFFFFF" 
                }
            },
            "HOW_TO_PLAY":{
                "text":"HOW TO PLAY",
                "style":{
                    "fontFamily": "Exo Bold", "fontSize": 100, "color": "#FFFFFF" 
                }
            },
            "HTP_INSTRUCTIONS_0":{
                "text":"Watch the Superbook Clip.",
                "style":{
                    "fontFamily": "Proximanova Regular", "fontSize": 44, "color": "#FFFFFF","align": "center","wordWrap": { "width": 800, "useAdvancedWrap": true }
                }
            },
            "HTP_INSTRUCTIONS_1":{
                "text":"Choose the correct answer on the screen.",
                "style":{
                    "fontFamily": "Proximanova Regular", "fontSize": 44, "color": "#FFFFFF","align": "center","wordWrap": { "width": 900, "useAdvancedWrap": true }
                }
            },
            "HTP_INSTRUCTIONS_2":{
                "text":"Score points based on how quickly you answer.",
                "style":{
                    "fontFamily": "Proximanova Regular", "fontSize": 44, "color": "#FFFFFF","align": "center","wordWrap": { "width": 800, "useAdvancedWrap": true }
                }
            },
            "HTP_INSTRUCTIONS_3":{
                "text":"A wrong answer or running out of time costs a life.",
                "style":{
                    "fontFamily": "Proximanova Regular", "fontSize": 44, "color": "#FFFFFF","align": "center","wordWrap": { "width": 800, "useAdvancedWrap": true }
                }
            },
            "HTP_INSTRUCTIONS_4":{
                "text":"Game ends after ten questions or if you run out of lives.",
                "style":{
                    "fontFamily": "Proximanova Regular", "fontSize": 44, "color": "#FFFFFF","align": "center","wordWrap": { "width": 800, "useAdvancedWrap": true }
                }
            },
            "HTP_INSTRUCTIONS_TOUCH_0":{
                "text":"Watch the Superbook Clip.",
                "style":{
                    "fontFamily": "Proximanova Regular", "fontSize": 44, "color": "#FFFFFF","align": "center","wordWrap": { "width": 800, "useAdvancedWrap": true }
                }
            },
            "HTP_INSTRUCTIONS_TOUCH_1":{
                "text":"Choose the correct answer on the screen.",
                "style":{
                    "fontFamily": "Proximanova Regular", "fontSize": 44, "color": "#FFFFFF","align": "center","wordWrap": { "width": 900, "useAdvancedWrap": true }
                }
            },
            "HTP_INSTRUCTIONS_TOUCH_2":{
                "text":"Score points based on how quickly you answer.",
                "style":{
                    "fontFamily": "Proximanova Regular", "fontSize": 44, "color": "#FFFFFF","align": "center","wordWrap": { "width": 800, "useAdvancedWrap": true }
                }
            },
            "HTP_INSTRUCTIONS_TOUCH_3":{
                "text":"A wrong answer or running out of time costs a life.",
                "style":{
                    "fontFamily": "Proximanova Regular", "fontSize": 44, "color": "#FFFFFF","align": "center","wordWrap": { "width": 800, "useAdvancedWrap": true }
                }
            },
            "HTP_INSTRUCTIONS_TOUCH_4":{
                "text":"Game ends after ten questions or if you run out of lives.",
                "style":{
                    "fontFamily": "Proximanova Regular", "fontSize": 44, "color": "#FFFFFF","align": "center","wordWrap": { "width": 800, "useAdvancedWrap": true }
                }
            },
            "ARE_YOU_SURE":{
                "text":"ARE YOU SURE?",
                "style":{
                    "fontFamily": "Exo Bold", "fontSize": 82, "color": "#FFFFFF"
                }
            },
            "VIDEO":{
                "text":"VIDEO",
                "style":{
                    "fontFamily": "Exo Medium", "fontSize": 28, "color": "#FFFFFF", "align": "center"
                }
            }
        }
    }
    
}