{
    "data":{
        "STR_LOADING": { 
            "TEXT": "LOADING...", 
            "STYLE": {
                "fontFamily": "proximanova-black",
                "align": "left",
                "fill": "#FFFFFF",
                "fontSize": 16
            }
        },
        "STR_TAP_CONT": { 
            "TEXT": "TAP ANYWHERE TO CONTINUE", 
            "STYLE": {
                "fontFamily": "proximanova-black",
                "align": "left",
                "fill": "#FFFFFF",
                "fontSize": 26
            }
        },
        "BTN_PLAY": { 
            "TEXT": "PLAY", 
            "STYLE": {
                "fontFamily": "proximanova-black",
                "align": "left",
                "fill": "#FFFFFF",
                "fontSize": 32
            }
        },
        "STR_CONFIRM": { 
            "TEXT": "ARE YOU SURE?", 
            "STYLE": {
                "fontFamily": "Exo-Bold",
                "align": "left",
                "fill": "#FFFFFF",
                "fontSize": 40
            }
        },
        "STR_PAUSED": { 
            "TEXT": "GAME PAUSED", 
            "STYLE": {
                "fontFamily": "Exo-Bold",
                "align": "left",
                "fill": "#FFFFFF",
                "fontSize": 50
            }
        },
        "STR_HTP": { 
            "TEXT": "HOW TO PLAY", 
            "STYLE": {
                "fontFamily": "Exo-Bold",
                "align": "left",
                "fill": "#FFFFFF",
                "fontSize": 50
            }
        },
        "STR_HTP_0": { 
            "TEXT": "Match animal pairs and harvest fruit in Eden.", 
            "STYLE": {
                "fontFamily": "proximanova-black",
                "align": "center",
                "fill": "#FFFFFF",
                "fontSize": 28
            }
        },
        "STR_HTP_D_1": { 
            "TEXT": "Click matching animal pairs before they hide back in the bushes to earn points.", 
            "STYLE": {
                "fontFamily": "proximanova-black",
                "align": "center",
                "fill": "#FFFFFF",
                "fontSize": 28
            }
        },
        "STR_HTP_M_1": { 
            "TEXT": "Tap matching animal pairs before they hide back in the bushes to earn points.", 
            "STYLE": {
                "fontFamily": "proximanova-black",
                "align": "center",
                "fill": "#FFFFFF",
                "fontSize": 28
            }
        },
        "STR_HTP_D_2": { 
            "TEXT": "Click to harvest the fruit for bonus points and bonus time.", 
            "STYLE": {
                "fontFamily": "proximanova-black",
                "align": "center",
                "fill": "#FFFFFF",
                "fontSize": 28
            }
        },
        "STR_HTP_M_2": { 
            "TEXT": "Tap to harvest the fruit for bonus points and bonus time.", 
            "STYLE": {
                "fontFamily": "proximanova-black",
                "align": "center",
                "fill": "#FFFFFF",
                "fontSize": 28
            }
        },
        "STR_HTP_3": { 
            "TEXT": "Making a wrong match, will earn you a time penalty.", 
            "STYLE": {
                "fontFamily": "proximanova-black",
                "align": "center",
                "fill": "#FFFFFF",
                "fontSize": 28
            }
        },
        "STR_HTP_4": { 
            "TEXT": "Collect as many pairs as you can before time runs out!", 
            "STYLE": {
                "fontFamily": "proximanova-black",
                "align": "center",
                "fill": "#FFFFFF",
                "fontSize": 28
            }
        },
        "STR_HTP_5": { 
            "TEXT": "The game ends when time runs out.", 
            "STYLE": {
                "fontFamily": "proximanova-black",
                "align": "center",
                "fill": "#FFFFFF",
                "fontSize": 28
            }
        },
        "STR_GAMEOVER": { 
            "TEXT": "GAME OVER", 
            "STYLE": {
                "fontFamily": "Exo-Bold",
                "align": "left",
                "fill": "#FFFFFF",
                "fontSize": 50
            }
        },
        "STR_SCORE": { 
            "TEXT": "SCORE: ", 
            "STYLE": {
                "fontFamily": "proximanova-black",
                "align": "left",
                "fill": "#FFFFFF",
                "fontSize": 50
            }
        },
        "STR_BESTSCORE": { 
            "TEXT": "BEST: ", 
            "STYLE": {
                "fontFamily": "proximanova-black",
                "align": "left",
                "fill": "#FFFFFF",
                "fontSize": 32
            }
        },
        "STR_CONT_BEST": { 
            "TEXT": "BEST", 
            "STYLE": {
                "fontFamily": "proximanova-black",
                "align": "left",
                "fill": "#FFFFFF",
                "fontSize": 20
            }
        },
        "STR_CONT_BESTSCORE": { 
            "TEXT": "", 
            "STYLE": {
                "fontFamily": "proximanova-black",
                "align": "left",
                "fill": "#FFFFFF",
                "fontSize": 36
            }
        },
        "STR_CONT_SCORETITLE": { 
            "TEXT": "SCORE", 
            "STYLE": {
                "fontFamily": "proximanova-black",
                "align": "left",
                "fill": "#FFFFFF",
                "fontSize": 20
            }
        },
        "STR_CONT_SCOREVALUE": { 
            "TEXT": "0", 
            "STYLE": {
                "fontFamily": "proximanova-black",
                "align": "left",
                "fill": "#FFFFFF",
                "fontSize": 36
            }
        },
        "STR_CONT_TIMERTITLE": { 
            "TEXT": "TIMER", 
            "STYLE": {
                "fontFamily": "proximanova-black",
                "align": "left",
                "fill": "#FFFFFF",
                "fontSize": 20
            }
        },
        "STR_CONT_TIMERVALUE": { 
            "TEXT": "2:00", 
            "STYLE": {
                "fontFamily": "proximanova-black",
                "align": "left",
                "fill": "#FFFFFF",
                "fontSize": 36
            }
        },
        "STR_CONT_SCOREEFFECT": { 
            "TEXT": "0", 
            "STYLE": {
                "fontFamily": "proximanova-black",
                "align": "left",
                "fill": "#FFFFFF",
                "fontSize": 50
            }
        }
    }
}