{
    "data":{
        "STR_LOADING": { 
            "TEXT": "LOADING...", 
            "STYLE": {
                "fontFamily": "proximanova-black",
                "align": "left",
                "fill": "#FFFFFF",
                "fontSize": 16
            }
        },
        "STR_TAP_CONT": { 
            "TEXT": "TAP ANYWHERE TO CONTINUE", 
            "STYLE": {
                "fontFamily": "proximanova-black",
                "align": "left",
                "fill": "#FFFFFF",
                "fontSize": 26
            }
        },
        "BTN_PLAY": { 
            "TEXT": "PLAY", 
            "STYLE": {
                "fontFamily": "proximanova-black",
                "align": "left",
                "fill": "#FFFFFF",
                "fontSize": 32
            }
        },
        "BTN_SHUFFLE": { 
            "TEXT": "SHUFFLE", 
            "STYLE": {
                "fontFamily": "proximanova-black",
                "align": "left",
                "fill": "#FFFFFF",
                "fontSize": 28
            }
        },
        "STR_CONFIRM": { 
            "TEXT": "ARE YOU SURE?", 
            "STYLE": {
                "fontFamily": "Exo-Bold",
                "align": "left",
                "fill": "#FFFFFF",
                "fontSize": 40
            }
        },
        "STR_PAUSED": { 
            "TEXT": "GAME PAUSED", 
            "STYLE": {
                "fontFamily": "Exo-Bold",
                "align": "left",
                "fill": "#FFFFFF",
                "fontSize": 50
            }
        },
        "STR_HTP": { 
            "TEXT": "HOW TO PLAY", 
            "STYLE": {
                "fontFamily": "Exo-Bold",
                "align": "left",
                "fill": "#FFFFFF",
                "fontSize": 50
            }
        },
        "STR_HTP_D_0": { 
            "TEXT": "Click matching artifacts to clear them.\nTrapped pieces cannot be matched.", 
            "STYLE": {
                "fontFamily": "proximanova-black",
                "align": "center",
                "fill": "#FFFFFF",
                "fontSize": 28
            }
        },
        "STR_HTP_M_0": { 
            "TEXT": "Tap matching artifacts to clear them.\nTrapped pieces cannot be matched.", 
            "STYLE": {
                "fontFamily": "proximanova-black",
                "align": "center",
                "fill": "#FFFFFF",
                "fontSize": 28
            }
        },
        "STR_HTP_D_1": { 
            "TEXT": "Click the arrows to rotate, if you can't find a match. As some artifacts may be hidden from view!", 
            "STYLE": {
                "fontFamily": "proximanova-black",
                "align": "center",
                "fill": "#FFFFFF",
                "fontSize": 28
            }
        },
        "STR_HTP_M_1": { 
            "TEXT": "Tap the arrows to rotate, if you can't find a match. As some artifacts may be hidden from view!", 
            "STYLE": {
                "fontFamily": "proximanova-black",
                "align": "center",
                "fill": "#FFFFFF",
                "fontSize": 28
            }
        },
        "STR_HTP_2": { 
            "TEXT": "Streaks of correct matches increase your points!", 
            "STYLE": {
                "fontFamily": "proximanova-black",
                "align": "center",
                "fill": "#FFFFFF",
                "fontSize": 28
            }
        },        
        "STR_HTP_3": { 
            "TEXT": "Player can use the shuffle button one time per level. Puzzle auto-shuffles when no more matches are possible.", 
            "STYLE": {
                "fontFamily": "proximanova-black",
                "align": "center",
                "fill": "#FFFFFF",
                "fontSize": 28
            }
        },
        "STR_GAMEOVER": { 
            "TEXT": "GAME OVER", 
            "STYLE": {
                "fontFamily": "Exo-Bold",
                "align": "left",
                "fill": "#FFFFFF",
                "fontSize": 50
            }
        },
        "STR_SCORE": { 
            "TEXT": "SCORE: ", 
            "STYLE": {
                "fontFamily": "proximanova-black",
                "align": "left",
                "fill": "#FFFFFF",
                "fontSize": 50
            }
        },
        "STR_BESTSCORE": { 
            "TEXT": "BEST: ", 
            "STYLE": {
                "fontFamily": "proximanova-black",
                "align": "left",
                "fill": "#FFFFFF",
                "fontSize": 32
            }
        },
        "STR_CONT_BEST": { 
            "TEXT": "BEST", 
            "STYLE": {
                "fontFamily": "proximanova-black",
                "align": "left",
                "fill": "#FFFFFF",
                "fontSize": 20
            }
        },
        "STR_CONT_BESTSCORE": { 
            "TEXT": "", 
            "STYLE": {
                "fontFamily": "proximanova-black",
                "align": "left",
                "fill": "#FFFFFF",
                "fontSize": 36
            }
        },
        "STR_CONT_SCORETITLE": { 
            "TEXT": "SCORE", 
            "STYLE": {
                "fontFamily": "proximanova-black",
                "align": "left",
                "fill": "#FFFFFF",
                "fontSize": 20
            }
        },
        "STR_CONT_SCOREVALUE": { 
            "TEXT": "0", 
            "STYLE": {
                "fontFamily": "proximanova-black",
                "align": "left",
                "fill": "#FFFFFF",
                "fontSize": 36
            }
        },
        "STR_CONT_TIMERTITLE": { 
            "TEXT": "TIMER", 
            "STYLE": {
                "fontFamily": "proximanova-black",
                "align": "left",
                "fill": "#FFFFFF",
                "fontSize": 20
            }
        },
        "STR_CONT_TIMERVALUE": { 
            "TEXT": "2:00", 
            "STYLE": {
                "fontFamily": "proximanova-black",
                "align": "left",
                "fill": "#FFFFFF",
                "fontSize": 36
            }
        },
        "STR_CONT_SCOREEFFECT": { 
            "TEXT": "0", 
            "STYLE": {
                "fontFamily": "proximanova-black",
                "align": "left",
                "fill": "#FFFFFF",
                "fontSize": 50
            }
        },
        "STR_NOMOREMATCHES": { 
            "TEXT": "NO MORE MATCHES", 
            "STYLE": {
                "fontFamily": "proximanova-black",
                "align": "center",
                "fill": "#FFFFFF",
                "fontSize": 48
            }
        },
        "STR_LEVELCOMPLETE": { 
            "TEXT": "LEVEL COMPLETE", 
            "STYLE": {
                "fontFamily": "proximanova-black",
                "align": "center",
                "fill": "#FFFFFF",
                "fontSize": 40
            }
        }
    }
}